2018-05-01T16:25:39.2326697+02:00  [FTL] Critical (3b111835)
2018-05-01T16:25:39.2508437+02:00  [ERR] Error (8968e0a8)
2018-05-01T16:25:39.2512188+02:00  [WRN] Warning (b88bd871)
2018-05-01T16:25:39.2515698+02:00  [INF] Information (eb044493)
2018-05-01T16:25:39.2519171+02:00  [DBG] Debug (fa2114eb)
2018-05-01T16:25:39.2522863+02:00  [VRB] Trace (bb18826b)
